[
  {
    "name": "default",
    "type": "postgres",
    "host": "ec2-54-246-101-215.eu-west-1.compute.amazonaws.com",
    "port": 5432,
    "username": "uedtqqweknzvxd",
    "password": "62a1aa84541af412d396f785b4105fdd146754ba23a54f2c24c6a1ef024369a0",
    "database": "d8bspbjlvqdoil",
    "entities": [
      "src/persistance/postgres/entities/*.js"
    ],
    "migrations": [
      "src/persistance/postgres/migrations/*.js"
    ],
    "extra": {
      "ssl": true
    }
  }
]